{
  "project_info": {
    "project_number": "1097789375318",
    "firebase_url": "https://tiecoon-2c718.firebaseio.com",
    "project_id": "tiecoon-2c718",
    "storage_bucket": "tiecoon-2c718.appspot.com"
  },
  "client": [
    {
      "client_info": {
        "mobilesdk_app_id": "1:1097789375318:android:87fcce9112d893c18e4cf7",
        "android_client_info": {
          "package_name": "com.twc.tiecoon"
        }
      },
      "oauth_client": [
        {
          "client_id": "1097789375318-m6bvil7imrip2n1atlanc3r7rc47qf8k.apps.googleusercontent.com",
          "client_type": 3
        }
      ],
      "api_key": [
        {
          "current_key": "AIzaSyAvnD12eLkuF96SmRoqjNFvYpICZf61ALM"
        }
      ],
      "services": {
        "appinvite_service": {
          "other_platform_oauth_client": [
            {
              "client_id": "1097789375318-m6bvil7imrip2n1atlanc3r7rc47qf8k.apps.googleusercontent.com",
              "client_type": 3
            }
          ]
        }
      }
    }
  ],
  "configuration_version": "1"
}